Chapter 5 R 데이터 시각화 기초 | 경영빅데이터분석 참고자료 - R 기초
…
> library(ggplot2)

패키지의 설치는 한 번만 수행하면 되지만, 패키지를 메모리에 적재하는 작업을 패키지를 사용할 때마다 수행하여야 한다. 한번 메모리에 적재된 패키지는 R 세션이 종료되기 전까지 유지된다. 그러므로 하나의 R 세션에서는 다시 library() 함수로 동일한 패키지를 적재하지 않아도 된다. 그러나 R 세션을 종료하고 다시 시작하였다면, 기본 패키지가 아니면 자동 적재되지 않으므로 사용하기 전에 패키지를 다시 적재하여야 한다.

5.2 ggplot2 시작하기

이 절에서는 ggplot2에서 제공하는 mpg 데이터를 이용하여 ‘배기량이 커지면 연비가 낮아지는가?’ 라는 물음을 그래프를 이용하여 탐색해 보자.
mpg는 1999년과 2008년에 미국 EPA에서 조사하여 발표한 자동차 주요 모델별 연비 데이터이다.

다음 명령을 이용하여 mpg 데이터를 출력해 보자. mpg 데이터는 tibble이라는 데이터 프레임의 일종으로, 사용자의 화면의 크기에 따라 출력 내용을 조정한다. 그러므로 화면의 크기에 따라 출력되는 내용이 책과는 조금 다를 수 있다.

> mpg

# A tibble: 234 x 11
   manufacturer model    displ  year   cyl trans   drv     cty   hwy fl    class
   <chr>        <chr>    <dbl> <int> <int> <chr>   <chr> <int> <int> <chr> <chr>
 1 audi         a4         1.8  1999     4 auto(l… f        18    29 p     comp…
 2 audi         a4         1.8  1999     4 manual… f        21    29 p     comp…
 3 audi         a4         2    2008     4 manual… f        20    31 p     comp…
 4 audi         a4         2    2008     4 auto(a… f        21    30 p     comp…
 5 audi         a4         2.8  1999     6 auto(l… f        16    26 p     comp…
 6 audi         a4         2.8  1999     6 manual… f        18    26 p     comp…
 7 audi         a4         3.1  2008     6 auto(a… f        18    27 p     comp…
 8 audi         a4 quat…   1.8  1999     4 manual… 4        18    26 p     comp…
 9 audi         a4 quat…   1.8  1999     4 auto(l… 4        16    25 p     comp…
10 audi         a4 quat…   2    2008     4 manual… 4        20    28 p     comp…
# … with 224 more rows
…
